Script Results
…
#How do the inspection score vary by city?

# Average and Max Score by City
score_by_city<-rest_df_filtered %>% group_by(CITY) %>% summarize(avg_score= mean(SCORE_INSPECTION),
                                                                 max_score = max(SCORE_INSPECTION),
                                                                 n_rests = n())

## `summarise()` ungrouping output (override with `.groups` argument)

score_by_city

## # A tibble: 51 x 4
##    CITY          avg_score max_score n_rests
##    <fct>             <dbl>     <int>   <int>
##  1 (None)             5            5       1
##  2 Algona             2.67        16       6
##  3 Auburn             5.46        77     265
##  4 Baring             0            0       1
##  5 Bellevue           9.29       100     610
##  6 Black Diamond      2.74        23      19
##  7 Bothell           11.8         70      83
##  8 Burien             4.21        50     148
##  9 Carnation          0.5          5      26
## 10 Clyde Hill         3.25        13       4
## # ... with 41 more rows

# What is the info on the restaurant with the worst score by city?

worst_by_city<-rest_df_filtered %>% group_by(CITY) %>% top_n(1, SCORE_INSPECTION)

worst_by_city

## # A tibble: 60 x 17
## # Groups:   CITY [51]
##    OBJECTID FEATURE_ID NAME  PROGRAM_IDENTIF~ SEAT_CAP RISK  ZIPCODE CITY 
##       <int>      <int> <fct> <fct>            <fct>    <fct>   <int> <fct>
##  1     6675       6701 AMBA~ AMBAKITY COCINA~ Mobile ~ III     98002 Aubu~
##  2     9442       9472 ARCH~ ARCHIE'S MEXICA~ Seating~ III     98148 Norm~
##  3    10794      10829 ASIA~ ASIAN PLANET FO~ Meat/Se~ III     98030 Kent 
##  4    19610      19667 BEEC~ BEECHER'S CHEES~ Seating~ III     98158 Seat~
##  5    21729      21787 BEST~ BEST OF BOTH WO~ Mobile ~ III     98296 Snoh~
##  6    22364      22426 BIG ~ BIG AIR BAR-B-Q~ Seating~ III     98045 Snoq~
##  7    36490      36636 CASA~ CASA BONITA      Seating~ III     98070 Vash~
##  8    36540      36686 CASA~ CASA DURANGO     Seating~ III     98148 Norm~
##  9    37437      37588 CATH~ CATHOUSE KC422 ~ Mobile ~ III     98290 Snoh~
## 10    46096      46269 COCO~ COCO JOE'S       Seating~ III     98001 Algo~
## # ... with 50 more rows, and 9 more variables: DATE_INSPECTION <fct>,
## #   TYPE_INSPECTION <fct>, SCORE_INSPECTION <int>,
## #   RESULT_INSPECTION <fct>, VIOLATIONTYPE <fct>, VIOLATIONDESCR <fct>,
## #   VIOLATIONPOINTS <dbl>, SEATTLE <chr>, DATE_INSP_FORMAT <date>
…
